Review if there are duplication of kobo name and labels in the kobo tools — review_kobo_labels • presentresults
…
results_table
Results table with group_var and analysis_var columns (names of the different
variables). The table will be used to review only the names and label that will appear.

    Value

    A data frame with the duplicated cases and the reasons. Empty if there is no duplication.

    Examples

review_kobo_labels(
  kobo_survey_sheet = presentresults_MSNA2024_kobotool_template$kobo_survey,
  kobo_choices_sheet = presentresults_MSNA2024_kobotool_template$kobo_choices,
)
#> # A tibble: 24 × 5
#>    comments                               name  list_name `label::english`     n
#>    <chr>                                  <chr> <chr>     <chr>            <int>
#>  1 Kobo survey sheet has duplicated labe… NA    NA        1. Salaried work     2
#>  2 Kobo survey sheet has duplicated labe… NA    NA        10. Loans, supp…     2
#>  3 Kobo survey sheet has duplicated labe… NA    NA        11. Other (plea…     2
#>  4 Kobo survey sheet has duplicated labe… NA    NA        2. Casual or da…     2
#>  5 Kobo survey sheet has duplicated labe… NA    NA        3. Income from …     2
#>  6 Kobo survey sheet has duplicated labe… NA    NA        4. Income from …     2
#>  7 Kobo survey sheet has duplicated labe… NA    NA        5. Government s…     2
#>  8 Kobo survey sheet has duplicated labe… NA    NA        6. Income from …     2
#>  9 Kobo survey sheet has duplicated labe… NA    NA        7. Remittances       2
#> 10 Kobo survey sheet has duplicated labe… NA    NA        8. Humanitarian…     2
#> # ℹ 14 more rows
…
