Helper to check the results for the IPC table — review_ipc_results • presentresults
…
#>  [1] "liv_stress_lcsi_1" "liv_stress_lcsi_2" "liv_stress_lcsi_3"
#>  [4] "liv_stress_lcsi_4" "liv_crisis_lcsi_1" "liv_crisis_lcsi_2"
#>  [7] "liv_crisis_lcsi_3" "liv_emerg_lcsi_1"  "liv_emerg_lcsi_2" 
#> [10] "liv_emerg_lcsi_3" 
#> 
#> $dictionary$lcsi_set_prop$values_set
#> [1] "yes"            "no_had_no_need" "no_exhausted"   "not_applicable"
#> 
#> $dictionary$lcsi_set_prop$analysis_type
#> [1] "prop_select_one"
#> 
#> 
#> 
#> $ipc_key_table
#> # A tibble: 875 × 8
#>    analysis_key          analysis_type analysis_var analysis_var_value group_var
#>    <chr>                 <chr>         <chr>        <chr>              <chr>    
#>  1 prop_select_one @/@ … prop_select_… fcs_cat      low                location…
#>  2 prop_select_one @/@ … prop_select_… fcs_cat      medium             location…
#>  3 prop_select_one @/@ … prop_select_… fcs_cat      high               location…
#>  4 prop_select_one @/@ … prop_select_… fcs_cat      low                location…
#>  5 prop_select_one @/@ … prop_select_… fcs_cat      medium             location…
#>  6 prop_select_one @/@ … prop_select_… fcs_cat      high               location…
#>  7 prop_select_one @/@ … prop_select_… fcs_cat      low                location…
#>  8 prop_select_one @/@ … prop_select_… fcs_cat      medium             location…
#>  9 prop_select_one @/@ … prop_select_… fcs_cat      high               location…
#> 10 prop_select_one @/@ … prop_select_… fcs_cat      low                location…
#> # ℹ 865 more rows
#> # ℹ 3 more variables: group_var_value <chr>, nb_analysis_var <dbl>,
#> #   nb_group_var <dbl>
#> 
#> $value_checked_ipc_key_table
#> $value_checked_ipc_key_table$fclc_matrix
#> # A tibble: 30 × 8
#>    analysis_key          analysis_type analysis_var analysis_var_value group_var
#>    <chr>                 <chr>         <chr>        <chr>              <chr>    
#>  1 prop_select_one @/@ … prop_select_… fcls_cat     phase_1            location…
#>  2 prop_select_one @/@ … prop_select_… fcls_cat     phase_2            location…
#>  3 prop_select_one @/@ … prop_select_… fcls_cat     phase_3            location…
#>  4 prop_select_one @/@ … prop_select_… fcls_cat     phase_4            location…
#>  5 prop_select_one @/@ … prop_select_… fcls_cat     phase_5            location…
#>  6 prop_select_one @/@ … prop_select_… fcls_cat     phase_1            location…
#>  7 prop_select_one @/@ … prop_select_… fcls_cat     phase_2            location…
#>  8 prop_select_one @/@ … prop_select_… fcls_cat     phase_3            location…
#>  9 prop_select_one @/@ … prop_select_… fcls_cat     phase_4            location…
#> 10 prop_select_one @/@ … prop_select_… fcls_cat     phase_5            location…
#> # ℹ 20 more rows
#> # ℹ 3 more variables: group_var_value <chr>, nb_analysis_var <dbl>,
#> #   nb_group_var <dbl>
#> 
#> $value_checked_ipc_key_table$fc_matrix
#> # A tibble: 29 × 8
#>    analysis_key          analysis_type analysis_var analysis_var_value group_var
#>    <chr>                 <chr>         <chr>        <chr>              <chr>    
#>  1 prop_select_one @/@ … prop_select_… fcm_cat      phase_1            location…
#>  2 prop_select_one @/@ … prop_select_… fcm_cat      phase_2            location…
#>  3 prop_select_one @/@ … prop_select_… fcm_cat      phase_3            location…
#>  4 prop_select_one @/@ … prop_select_… fcm_cat      phase_4            location…
#>  5 prop_select_one @/@ … prop_select_… fcm_cat      phase_5            location…
#>  6 prop_select_one @/@ … prop_select_… fcm_cat      phase_1            location…
#>  7 prop_select_one @/@ … prop_select_… fcm_cat      phase_2            location…
#>  8 prop_select_one @/@ … prop_select_… fcm_cat      phase_3            location…
#>  9 prop_select_one @/@ … prop_select_… fcm_cat      phase_4            location…
#> 10 prop_select_one @/@ … prop_select_… fcm_cat      phase_5            location…
#> # ℹ 19 more rows
#> # ℹ 3 more variables: group_var_value <chr>, nb_analysis_var <dbl>,
#> #   nb_group_var <dbl>
…
#>  9 prop_select_one @/@ … prop_select_… fcs_cat      high               location…
#> 10 prop_select_one @/@ … prop_select_… fcs_cat      low                location…
#> 11 prop_select_one @/@ … prop_select_… fcs_cat      medium             location…
#> 12 prop_select_one @/@ … prop_select_… fcs_cat      high               location…
#> 13 prop_select_one @/@ … prop_select_… fcs_cat      low                location 
#> 14 prop_select_one @/@ … prop_select_… fcs_cat      medium             location 
#> 15 prop_select_one @/@ … prop_select_… fcs_cat      high               location 
#> 16 prop_select_one @/@ … prop_select_… fcs_cat      low                location 
#> 17 prop_select_one @/@ … prop_select_… fcs_cat      medium             location 
#> 18 prop_select_one @/@ … prop_select_… fcs_cat      high               location 
#> # ℹ 3 more variables: group_var_value <chr>, nb_analysis_var <dbl>,
#> #   nb_group_var <dbl>
#> 
#> $value_checked_ipc_key_table$hhs
#> # A tibble: 30 × 8
#>    analysis_key          analysis_type analysis_var analysis_var_value group_var
#>    <chr>                 <chr>         <chr>        <chr>              <chr>    
#>  1 prop_select_one @/@ … prop_select_… hhs_cat      none               location…
#>  2 prop_select_one @/@ … prop_select_… hhs_cat      slight             location…
#>  3 prop_select_one @/@ … prop_select_… hhs_cat      moderate           location…
#>  4 prop_select_one @/@ … prop_select_… hhs_cat      severe             location…
#>  5 prop_select_one @/@ … prop_select_… hhs_cat      very_severe        location…
#>  6 prop_select_one @/@ … prop_select_… hhs_cat      none               location…
#>  7 prop_select_one @/@ … prop_select_… hhs_cat      slight             location…
#>  8 prop_select_one @/@ … prop_select_… hhs_cat      moderate           location…
#>  9 prop_select_one @/@ … prop_select_… hhs_cat      severe             location…
#> 10 prop_select_one @/@ … prop_select_… hhs_cat      very_severe        location…
#> # ℹ 20 more rows
#> # ℹ 3 more variables: group_var_value <chr>, nb_analysis_var <dbl>,
#> #   nb_group_var <dbl>
…
#>  9 prop_select_one @/@ … prop_select_… rcsi_cat     high               location…
#> 10 prop_select_one @/@ … prop_select_… rcsi_cat     low                location…
#> 11 prop_select_one @/@ … prop_select_… rcsi_cat     medium             location…
#> 12 prop_select_one @/@ … prop_select_… rcsi_cat     high               location…
#> 13 prop_select_one @/@ … prop_select_… rcsi_cat     low                location 
#> 14 prop_select_one @/@ … prop_select_… rcsi_cat     medium             location 
#> 15 prop_select_one @/@ … prop_select_… rcsi_cat     high               location 
#> 16 prop_select_one @/@ … prop_select_… rcsi_cat     low                location 
#> 17 prop_select_one @/@ … prop_select_… rcsi_cat     medium             location 
#> 18 prop_select_one @/@ … prop_select_… rcsi_cat     high               location 
#> # ℹ 3 more variables: group_var_value <chr>, nb_analysis_var <dbl>,
#> #   nb_group_var <dbl>
#> 
#> $value_checked_ipc_key_table$lcsi
#> # A tibble: 24 × 8
#>    analysis_key          analysis_type analysis_var analysis_var_value group_var
#>    <chr>                 <chr>         <chr>        <chr>              <chr>    
#>  1 prop_select_one @/@ … prop_select_… lcs_cat      none               location…
#>  2 prop_select_one @/@ … prop_select_… lcs_cat      stress             location…
#>  3 prop_select_one @/@ … prop_select_… lcs_cat      emergency          location…
#>  4 prop_select_one @/@ … prop_select_… lcs_cat      crisis             location…
#>  5 prop_select_one @/@ … prop_select_… lcs_cat      none               location…
#>  6 prop_select_one @/@ … prop_select_… lcs_cat      stress             location…
#>  7 prop_select_one @/@ … prop_select_… lcs_cat      emergency          location…
#>  8 prop_select_one @/@ … prop_select_… lcs_cat      crisis             location…
#>  9 prop_select_one @/@ … prop_select_… lcs_cat      none               location…
#> 10 prop_select_one @/@ … prop_select_… lcs_cat      stress             location…
#> # ℹ 14 more rows
#> # ℹ 3 more variables: group_var_value <chr>, nb_analysis_var <dbl>,
#> #   nb_group_var <dbl>
#> 
#> $value_checked_ipc_key_table$fcs_set_mean
#> # A tibble: 54 × 8
#>    analysis_key          analysis_type analysis_var analysis_var_value group_var
#>    <chr>                 <chr>         <chr>        <chr>              <chr>    
#>  1 mean @/@ fs_fcs_cere… mean          fs_fcs_cere… NA                 location…
#>  2 mean @/@ fs_fcs_cere… mean          fs_fcs_cere… NA                 location…
#>  3 mean @/@ fs_fcs_cere… mean          fs_fcs_cere… NA                 location…
#>  4 mean @/@ fs_fcs_cere… mean          fs_fcs_cere… NA                 location…
#>  5 mean @/@ fs_fcs_bean… mean          fs_fcs_bean… NA                 location…
#>  6 mean @/@ fs_fcs_bean… mean          fs_fcs_bean… NA                 location…
#>  7 mean @/@ fs_fcs_bean… mean          fs_fcs_bean… NA                 location…
#>  8 mean @/@ fs_fcs_bean… mean          fs_fcs_bean… NA                 location…
#>  9 mean @/@ fs_fcs_dair… mean          fs_fcs_dairy NA                 location…
#> 10 mean @/@ fs_fcs_dair… mean          fs_fcs_dairy NA                 location…
#> # ℹ 44 more rows
#> # ℹ 3 more variables: group_var_value <chr>, nb_analysis_var <dbl>,
#> #   nb_group_var <dbl>
#> 
#> $value_checked_ipc_key_table$hhs_yesno_set_prop
#> # A tibble: 36 × 8
#>    analysis_key          analysis_type analysis_var analysis_var_value group_var
#>    <chr>                 <chr>         <chr>        <chr>              <chr>    
#>  1 prop_select_one @/@ … prop_select_… fs_hhs_nofo… no                 location…
#>  2 prop_select_one @/@ … prop_select_… fs_hhs_nofo… yes                location…
#>  3 prop_select_one @/@ … prop_select_… fs_hhs_nofo… no                 location…
#>  4 prop_select_one @/@ … prop_select_… fs_hhs_nofo… yes                location…
#>  5 prop_select_one @/@ … prop_select_… fs_hhs_nofo… no                 location…
#>  6 prop_select_one @/@ … prop_select_… fs_hhs_nofo… yes                location…
#>  7 prop_select_one @/@ … prop_select_… fs_hhs_nofo… no                 location…
#>  8 prop_select_one @/@ … prop_select_… fs_hhs_nofo… yes                location…
#>  9 prop_select_one @/@ … prop_select_… fs_hhs_slee… no                 location…
#> 10 prop_select_one @/@ … prop_select_… fs_hhs_slee… yes                location…
#> # ℹ 26 more rows
#> # ℹ 3 more variables: group_var_value <chr>, nb_analysis_var <dbl>,
#> #   nb_group_var <dbl>
#> 
#> $value_checked_ipc_key_table$hhs_freq_set_prop
#> # A tibble: 53 × 8
#>    analysis_key          analysis_type analysis_var analysis_var_value group_var
#>    <chr>                 <chr>         <chr>        <chr>              <chr>    
#>  1 prop_select_one @/@ … prop_select_… fs_hhs_nofo… often_10_times     location…
#>  2 prop_select_one @/@ … prop_select_… fs_hhs_nofo… rarely_1_2         location…
#>  3 prop_select_one @/@ … prop_select_… fs_hhs_nofo… sometimes_3_10     location…
#>  4 prop_select_one @/@ … prop_select_… fs_hhs_nofo… often_10_times     location…
#>  5 prop_select_one @/@ … prop_select_… fs_hhs_nofo… rarely_1_2         location…
#>  6 prop_select_one @/@ … prop_select_… fs_hhs_nofo… sometimes_3_10     location…
#>  7 prop_select_one @/@ … prop_select_… fs_hhs_nofo… often_10_times     location…
#>  8 prop_select_one @/@ … prop_select_… fs_hhs_nofo… rarely_1_2         location…
#>  9 prop_select_one @/@ … prop_select_… fs_hhs_nofo… sometimes_3_10     location…
#> 10 prop_select_one @/@ … prop_select_… fs_hhs_nofo… often_10_times     location…
#> # ℹ 43 more rows
#> # ℹ 3 more variables: group_var_value <chr>, nb_analysis_var <dbl>,
#> #   nb_group_var <dbl>
#> 
#> $value_checked_ipc_key_table$rcsi_set_mean
#> # A tibble: 30 × 8
#>    analysis_key          analysis_type analysis_var analysis_var_value group_var
#>    <chr>                 <chr>         <chr>        <chr>              <chr>    
#>  1 mean @/@ rCSILessQlt… mean          rCSILessQlty NA                 location…
#>  2 mean @/@ rCSILessQlt… mean          rCSILessQlty NA                 location…
#>  3 mean @/@ rCSILessQlt… mean          rCSILessQlty NA                 location…
#>  4 mean @/@ rCSILessQlt… mean          rCSILessQlty NA                 location…
#>  5 mean @/@ rCSIBorrow … mean          rCSIBorrow   NA                 location…
#>  6 mean @/@ rCSIBorrow … mean          rCSIBorrow   NA                 location…
#>  7 mean @/@ rCSIBorrow … mean          rCSIBorrow   NA                 location…
#>  8 mean @/@ rCSIBorrow … mean          rCSIBorrow   NA                 location…
#>  9 mean @/@ rCSIMealSiz… mean          rCSIMealSize NA                 location…
#> 10 mean @/@ rCSIMealSiz… mean          rCSIMealSize NA                 location…
#> # ℹ 20 more rows
#> # ℹ 3 more variables: group_var_value <chr>, nb_analysis_var <dbl>,
#> #   nb_group_var <dbl>
#> 
#> $value_checked_ipc_key_table$rcsi_set_prop
#> # A tibble: 230 × 8
#>    analysis_key          analysis_type analysis_var analysis_var_value group_var
#>    <chr>                 <chr>         <chr>        <chr>              <chr>    
#>  1 prop_select_one @/@ … prop_select_… rCSILessQlty 0                  location…
#>  2 prop_select_one @/@ … prop_select_… rCSILessQlty 1                  location…
#>  3 prop_select_one @/@ … prop_select_… rCSILessQlty 2                  location…
#>  4 prop_select_one @/@ … prop_select_… rCSILessQlty 3                  location…
#>  5 prop_select_one @/@ … prop_select_… rCSILessQlty 4                  location…
#>  6 prop_select_one @/@ … prop_select_… rCSILessQlty 5                  location…
#>  7 prop_select_one @/@ … prop_select_… rCSILessQlty 6                  location…
#>  8 prop_select_one @/@ … prop_select_… rCSILessQlty 7                  location…
#>  9 prop_select_one @/@ … prop_select_… rCSILessQlty 0                  location…
#> 10 prop_select_one @/@ … prop_select_… rCSILessQlty 1                  location…
#> # ℹ 220 more rows
#> # ℹ 3 more variables: group_var_value <chr>, nb_analysis_var <dbl>,
#> #   nb_group_var <dbl>
#> 
#> $value_checked_ipc_key_table$lcsi_set_prop
#> # A tibble: 240 × 8
#>    analysis_key          analysis_type analysis_var analysis_var_value group_var
#>    <chr>                 <chr>         <chr>        <chr>              <chr>    
#>  1 prop_select_one @/@ … prop_select_… liv_stress_… no_exhausted       location…
#>  2 prop_select_one @/@ … prop_select_… liv_stress_… no_had_no_need     location…
#>  3 prop_select_one @/@ … prop_select_… liv_stress_… not_applicable     location…
#>  4 prop_select_one @/@ … prop_select_… liv_stress_… yes                location…
#>  5 prop_select_one @/@ … prop_select_… liv_stress_… no_exhausted       location…
#>  6 prop_select_one @/@ … prop_select_… liv_stress_… no_had_no_need     location…
#>  7 prop_select_one @/@ … prop_select_… liv_stress_… not_applicable     location…
#>  8 prop_select_one @/@ … prop_select_… liv_stress_… yes                location…
#>  9 prop_select_one @/@ … prop_select_… liv_stress_… no_exhausted       location…
#> 10 prop_select_one @/@ … prop_select_… liv_stress_… no_had_no_need     location…
#> # ℹ 230 more rows
#> # ℹ 3 more variables: group_var_value <chr>, nb_analysis_var <dbl>,
#> #   nb_group_var <dbl>
…
